<?xml version="1.0" encoding="utf-8"?>
<!-- Generator: Avocode 2.6.0 - http://avocode.com -->
<svg height="21" width="25" xmlns:xlink="http://www.w3.org/1999/xlink" xmlns="http://www.w3.org/2000/svg" viewBox="0 0 25 21">
    <path fill="#d0021b" fill-rule="evenodd" d="M 23.44 0 L 1.56 0 C 0.7 0 0 0.71 0 1.58 L 0 15.22 C 0 16.09 0.7 16.8 1.56 16.8 L 3.13 16.8 L 3.13 20.47 C 3.13 20.69 3.25 20.88 3.45 20.96 C 3.51 20.99 3.58 21 3.65 21 C 3.78 21 3.91 20.95 4.01 20.85 L 8.03 16.8 L 23.44 16.8 C 24.3 16.8 25 16.09 25 15.22 L 25 1.58 C 25 0.71 24.3 0 23.44 0 L 23.44 0 Z M 23.96 15.22 C 23.96 15.51 23.73 15.75 23.44 15.75 L 7.81 15.75 C 7.67 15.75 7.54 15.81 7.44 15.9 L 4.17 19.21 L 4.17 16.27 C 4.17 15.99 3.93 15.75 3.65 15.75 L 1.56 15.75 C 1.28 15.75 1.04 15.51 1.04 15.22 L 1.04 1.58 C 1.04 1.29 1.28 1.05 1.56 1.05 L 23.44 1.05 C 23.73 1.05 23.96 1.29 23.96 1.58 L 23.96 15.22 L 23.96 15.22 Z M 23.96 15.22" />
    <path fill="#d0021b" fill-rule="evenodd" d="M 8.85 9.45 C 9.43 9.45 9.9 8.98 9.9 8.4 C 9.9 7.82 9.43 7.35 8.85 7.35 C 8.28 7.35 7.81 7.82 7.81 8.4 C 7.81 8.98 8.28 9.45 8.85 9.45 Z M 8.85 9.45" />
    <path fill="#d0021b" fill-rule="evenodd" d="M 17.19 9.45 C 17.76 9.45 18.23 8.98 18.23 8.4 C 18.23 7.82 17.76 7.35 17.19 7.35 C 16.61 7.35 16.15 7.82 16.15 8.4 C 16.15 8.98 16.61 9.45 17.19 9.45 Z M 17.19 9.45" />
    <path fill="#d0021b" fill-rule="evenodd" d="M 13.02 9.45 C 13.6 9.45 14.06 8.98 14.06 8.4 C 14.06 7.82 13.6 7.35 13.02 7.35 C 12.45 7.35 11.98 7.82 11.98 8.4 C 11.98 8.98 12.45 9.45 13.02 9.45 Z M 13.02 9.45" />
</svg>